### ============================================
### SPRINT 5 - FASE 4: TRIP REPORTS CRUD
### Pruebas de API para reportes de viajes (snapshots estilo Excel)
### ============================================
### 
### 📋 INSTRUCCIONES DE USO:
### 1. Asegúrate de haber corrido el seed: npm run prisma:seed
### 2. Primero ejecuta la petición "0.1 Login" para obtener el token
### 3. El token tiene una duración de 15 minutos
### 4. Si el token expira, ejecuta nuevamente el login o usa "0.2 Refresh Token"
### 
### ⚠️ Si obtienes error 403 Forbidden:
###    - Corre: npm run prisma:seed
###    - El usuario admin@templarios.com necesita los nuevos permisos
### ============================================

@baseUrl = http://localhost:3001/api/v1
@token = {{login.response.body.$.data.accessToken}}
@refreshToken = {{login.response.body.$.data.refreshToken}}

### ============================================
### 0. AUTENTICACIÓN
### ============================================

### 0.1 Login para obtener token
### ⚠️ EJECUTA ESTO PRIMERO - El token dura 15 minutos
# @name login
POST {{baseUrl}}/auth/login
Content-Type: application/json

{
  "email": "admin@templarios.com",
  "password": "Admin123!"
}

### 📤 RESPUESTA ESPERADA:
### {
###   "success": true,
###   "message": "Login successful",
###   "data": {
###     "accessToken": "eyJhbGciOiJIUzI1NiIsInR5cCI6IkpXVCJ9...",
###     "refreshToken": "eyJhbGciOiJIUzI1NiIsInR5cCI6IkpXVCJ9...",
###     "user": {
###       "id": "uuid-del-usuario",
###       "email": "admin@templarios.com",
###       "firstName": "Super",
###       "lastName": "Admin",
###       "phone": "+591 70000000",
###       "roles": ["Super Admin"],
###       "permissions": [..., "reportes:viajes:listar", ...]
###     }
###   },
###   "timestamp": "2026-03-30T15:00:00.000Z"
### }

### 0.2 Refresh Token - Usa esto si el access token expiró
# @name refreshToken
POST {{baseUrl}}/auth/refresh-token
Content-Type: application/json

{
  "refreshToken": "{{refreshToken}}"
}

### ============================================
### 1. TRIP REPORTS - ESTADÍSTICAS Y LISTAS
### ============================================

### 1.1 Obtener estadísticas de reportes
# @name getStats
GET {{baseUrl}}/trip-reports/stats
Authorization: Bearer {{token}}

### 📤 RESPUESTA ESPERADA:
### {
###   "success": true,
###   "message": "Estadisticas de reportes obtenidas correctamente",
###   "data": {
###     "total": 15,
###     "complete": 10,
###     "incomplete": 5,
###     "blockedPayments": 3,
###     "pendingPayments": 8,
###     "partialPayments": 2,
###     "paidPayments": 5,
###     "totalFreight": 18500.00,
###     "totalRetention": 1295.00,
###     "totalNet": 17205.00
###   },
###   "timestamp": "2026-03-30T15:05:00.000Z"
### }

### 1.2 Obtener reportes con pagos bloqueados
# @name getBlockedPayments
GET {{baseUrl}}/trip-reports/blocked-payments?page=1&limit=10
Authorization: Bearer {{token}}

### 📤 RESPUESTA ESPERADA:
### {
###   "success": true,
###   "message": "Reportes con pagos bloqueados obtenidos correctamente",
###   "data": {
###     "data": [
###       {
###         "id": "uuid-report",
###         "tripId": "uuid-trip",
###         "micDta": "MIC-2024-003",
###         "blNumber": "BL-2024-001",
###         "lineNumber": 3,
###         "clientId": "uuid-client",
###         "clientName": "SIDERURGICA BOLIVIA S.R.L.",
###         "origin": "Matarani",
###         "destination": "Cochabamba",
###         "truckPlate": "ABC-123",
###         "driverName": "Juan Perez",
###         "isPaymentBlocked": true,
###         "documentsComplete": false,
###         "documentsPending": 2,
###         "missingDocuments": "MIC,BALANZA",
###         "paymentStatus": "pending",
###         "freightAmount": "1200.00",
###         "netAmount": "1116.00"
###       }
###     ],
###     "meta": {
###       "total": 3,
###       "page": 1,
###       "limit": 10,
###       "totalPages": 1
###     }
###   },
###   "timestamp": "2026-03-30T15:06:00.000Z"
### }

### 1.3 Obtener reportes con documentos incompletos
# @name getIncompleteDocuments
GET {{baseUrl}}/trip-reports/incomplete-documents?page=1&limit=10
Authorization: Bearer {{token}}

### 📤 RESPUESTA ESPERADA:
### {
###   "success": true,
###   "message": "Reportes con documentos incompletos obtenidos correctamente",
###   "data": {
###     "data": [
###       {
###         "id": "uuid-report",
###         "tripId": "uuid-trip",
###         "micDta": "MIC-2024-005",
###         "blNumber": "BL-2024-002",
###         "lineNumber": 2,
###         "clientId": "uuid-client",
###         "clientName": "IMPORTADORA ANDINA S.A.",
###         "origin": "Desaguadero",
###         "destination": "Santa Cruz",
###         "truckPlate": "DEF-456",
###         "driverName": "Carlos Mamani",
###         "isPaymentBlocked": true,
###         "documentsComplete": false,
###         "documentsPending": 3,
###         "missingDocuments": "CRT,ASPB,BALANZA",
###         "paymentStatus": "pending"
###       }
###     ],
###     "meta": {
###       "total": 5,
###       "page": 1,
###       "limit": 10,
###       "totalPages": 1
###     }
###   },
###   "timestamp": "2026-03-30T15:07:00.000Z"
### }

### ============================================
### 2. TRIP REPORTS - LECTURA
### ============================================

### 2.1 Obtener todos los reportes (paginado)
# @name getAll
GET {{baseUrl}}/trip-reports?page=1&limit=10
Authorization: Bearer {{token}}

### 📤 RESPUESTA ESPERADA:
### {
###   "success": true,
###   "message": "Reportes de viaje obtenidos correctamente",
###   "data": {
###     "data": [
###       {
###         "id": "uuid-report-1",
###         "tripId": "uuid-trip-1",
###         "micDta": "MIC-2024-001",
###         "blNumber": "BL-2024-001",
###         "lineNumber": 1,
###         "clientId": "uuid-client-1",
###         "clientName": "SIDERURGICA BOLIVIA S.R.L.",
###         "clientNit": "1023456789",
###         "origin": "Matarani",
###         "destination": "Cochabamba",
###         "tramoCode": "MAT-CBA",
###         "truckPlate": "ABC-123",
###         "trailerPlate": "XYZ-456",
###         "driverName": "Juan Perez",
###         "driverCi": "12345678",
###         "isSupportTruck": false,
###         "weightKg": "25000.00",
###         "unitCount": 1,
###         "freightAmount": "1200.00",
###         "retentionPercent": "7.00",
###         "retentionAmount": "84.00",
###         "netAmount": "1116.00",
###         "documentsComplete": true,
###         "documentsPending": 0,
###         "missingDocuments": null,
###         "isPaymentBlocked": false,
###         "paymentStatus": "pending",
###         "departureDate": "2024-01-15T08:00:00.000Z",
###         "arrivalDate": null,
###         "documentDate": null,
###         "createdAt": "2024-01-15T10:00:00.000Z",
###         "updatedAt": "2024-01-15T10:00:00.000Z"
###       }
###     ],
###     "meta": {
###       "total": 15,
###       "page": 1,
###       "limit": 10,
###       "totalPages": 2
###     }
###   },
###   "timestamp": "2026-03-30T15:10:00.000Z"
### }

### 2.2 Obtener reportes con filtros
# @name getWithFilters
GET {{baseUrl}}/trip-reports?paymentStatus=pending&documentsComplete=false&page=1&limit=10
Authorization: Bearer {{token}}

### 📤 RESPUESTA ESPERADA: Lista filtrada por estado de pago pendiente y documentos incompletos

### 2.3 Obtener reportes por búsqueda
# @name search
GET {{baseUrl}}/trip-reports?search=Matarani
Authorization: Bearer {{token}}

### 📤 RESPUESTA ESPERADA:
### {
###   "success": true,
###   "message": "Reportes de viaje obtenidos correctamente",
###   "data": {
###     "data": [
###       {
###         "id": "uuid-report",
###         "micDta": "MIC-2024-001",
###         "origin": "Matarani",
###         "destination": "Cochabamba",
###         ...
###       }
###     ],
###     "meta": { ... }
###   }
### }

### 2.4 Obtener reportes por BL
# @name getByBlNumber
GET {{baseUrl}}/trip-reports/bl/BL-2024-001
Authorization: Bearer {{token}}

### 📤 RESPUESTA ESPERADA:
### {
###   "success": true,
###   "message": "Reportes de viaje por BL obtenidos correctamente",
###   "data": [
###     {
###       "id": "uuid-report-1",
###       "micDta": "MIC-2024-001",
###       "blNumber": "BL-2024-001",
###       "lineNumber": 1,
###       ...
###     },
###     {
###       "id": "uuid-report-2",
###       "micDta": "MIC-2024-002",
###       "blNumber": "BL-2024-001",
###       "lineNumber": 2,
###       ...
###     }
###   ],
###   "timestamp": "2026-03-30T15:12:00.000Z"
### }

### 2.5 Obtener resumen por BL
# @name getBlSummary
GET {{baseUrl}}/trip-reports/bl/BL-2024-001/summary
Authorization: Bearer {{token}}

### 📤 RESPUESTA ESPERADA:
### {
###   "success": true,
###   "message": "Resumen de BL obtenido correctamente",
###   "data": {
###     "blNumber": "BL-2024-001",
###     "totalTrips": 3,
###     "totalWeight": 75000.00,
###     "totalFreight": 3600.00,
###     "totalRetention": 252.00,
###     "totalNet": 3348.00,
###     "completeDocs": 2,
###     "incompleteDocs": 1,
###     "trips": [
###       {
###         "id": "uuid-report-1",
###         "lineNumber": 1,
###         "micDta": "MIC-2024-001",
###         ...
###       }
###     ]
###   },
###   "timestamp": "2026-03-30T15:13:00.000Z"
### }

### 2.6 Obtener reportes por cliente
# @name getByClientId
GET {{baseUrl}}/trip-reports/client/{{clientId}}?page=1&limit=10
Authorization: Bearer {{token}}

### 📤 RESPUESTA ESPERADA:
### {
###   "success": true,
###   "message": "Reportes de viaje por cliente obtenidos correctamente",
###   "data": {
###     "data": [...],
###     "meta": {
###       "total": 5,
###       "page": 1,
###       "limit": 10,
###       "totalPages": 1
###     }
###   }
### }

### 2.7 Obtener reporte por ID
# @name getById
GET {{baseUrl}}/trip-reports/{{tripReportId}}
Authorization: Bearer {{token}}

### 📤 RESPUESTA ESPERADA:
### {
###   "success": true,
###   "message": "Reporte de viaje obtenido correctamente",
###   "data": {
###     "id": "uuid-report",
###     "tripId": "uuid-trip",
###     "micDta": "MIC-2024-001",
###     "blNumber": "BL-2024-001",
###     "lineNumber": 1,
###     "clientId": "uuid-client",
###     "clientName": "SIDERURGICA BOLIVIA S.R.L.",
###     "clientNit": "1023456789",
###     "origin": "Matarani",
###     "destination": "Cochabamba",
###     "tramoCode": "MAT-CBA",
###     "truckPlate": "ABC-123",
###     "trailerPlate": "XYZ-456",
###     "driverName": "Juan Perez",
###     "driverCi": "12345678",
###     "isSupportTruck": false,
###     "weightKg": "25000.00",
###     "unitCount": 1,
###     "freightAmount": "1200.00",
###     "retentionPercent": "7.00",
###     "retentionAmount": "84.00",
###     "netAmount": "1116.00",
###     "documentsComplete": true,
###     "documentsPending": 0,
###     "missingDocuments": null,
###     "isPaymentBlocked": false,
###     "paymentStatus": "pending",
###     "departureDate": "2024-01-15T08:00:00.000Z",
###     "arrivalDate": null,
###     "documentDate": null,
###     "createdAt": "2024-01-15T10:00:00.000Z",
###     "updatedAt": "2024-01-15T10:00:00.000Z"
###   },
###   "timestamp": "2026-03-30T15:15:00.000Z"
### }

### 2.8 Obtener reporte por tripId
# @name getByTripId
GET {{baseUrl}}/trip-reports/trip/{{tripId}}
Authorization: Bearer {{token}}

### 📤 RESPUESTA ESPERADA: Similar a 2.7

### 2.9 Obtener reporte por MIC/DTA
# @name getByMicDta
GET {{baseUrl}}/trip-reports/mic-dta/MIC-2024-001
Authorization: Bearer {{token}}

### 📤 RESPUESTA ESPERADA: Similar a 2.7

### ============================================
### 3. TRIP REPORTS - GENERACIÓN
### ============================================

### 3.1 Generar reporte desde un viaje
# @name generateFromTrip
POST {{baseUrl}}/trip-reports/generate/{{tripId}}
Authorization: Bearer {{token}}

### 📤 RESPUESTA ESPERADA:
### {
###   "success": true,
###   "message": "Reporte de viaje generado correctamente",
###   "data": {
###     "id": "uuid-nuevo-reporte",
###     "tripId": "uuid-trip",
###     "micDta": "MIC-2024-010",
###     "blNumber": "BL-2024-005",
###     "lineNumber": 1,
###     "clientId": "uuid-client",
###     "clientName": "ACEROS DEL ORIENTE",
###     "origin": "Matarani",
###     "destination": "Santa Cruz",
###     "tramoCode": "MAT-SCZ",
###     "truckPlate": "GHI-789",
###     "trailerPlate": "JKL-012",
###     "driverName": "Roberto Suarez",
###     "driverCi": "87654321",
###     "isSupportTruck": false,
###     "weightKg": "30000.00",
###     "unitCount": 1,
###     "freightAmount": "1800.00",
###     "retentionPercent": "7.00",
###     "retentionAmount": "126.00",
###     "netAmount": "1674.00",
###     "documentsComplete": false,
###     "documentsPending": 3,
###     "missingDocuments": "MIC,CRT,ASPB",
###     "isPaymentBlocked": true,
###     "paymentStatus": "pending",
###     "departureDate": "2024-02-01T06:00:00.000Z",
###     "arrivalDate": null,
###     "documentDate": null,
###     "createdAt": "2024-02-01T08:00:00.000Z",
###     "updatedAt": "2024-02-01T08:00:00.000Z"
###   },
###   "timestamp": "2026-03-30T15:20:00.000Z"
### }

### 3.2 Generar reportes faltantes (todos los viajes sin reporte)
# @name generateMissing
POST {{baseUrl}}/trip-reports/generate-missing
Authorization: Bearer {{token}}

### 📤 RESPUESTA ESPERADA:
### {
###   "success": true,
###   "message": "Reportes faltantes generados correctamente",
###   "data": {
###     "generated": 5,
###     "errors": []
###   },
###   "timestamp": "2026-03-30T15:21:00.000Z"
### }

### ============================================
### 4. TRIP REPORTS - ACTUALIZACIÓN
### ============================================

### 4.1 Actualizar número de línea
# @name updateLineNumber
PUT {{baseUrl}}/trip-reports/{{tripReportId}}
Authorization: Bearer {{token}}
Content-Type: application/json

{
  "lineNumber": 2
}

### 📤 RESPUESTA ESPERADA:
### {
###   "success": true,
###   "message": "Reporte de viaje actualizado correctamente",
###   "data": {
###     "id": "uuid-report",
###     "lineNumber": 2,
###     ...
###   },
###   "timestamp": "2026-03-30T15:25:00.000Z"
### }

### 4.2 Actualizar estado de pago
# @name updatePaymentStatus
PUT {{baseUrl}}/trip-reports/{{tripReportId}}
Authorization: Bearer {{token}}
Content-Type: application/json

{
  "paymentStatus": "paid"
}

### 📤 RESPUESTA ESPERADA:
### {
###   "success": true,
###   "message": "Reporte de viaje actualizado correctamente",
###   "data": {
###     "id": "uuid-report",
###     "paymentStatus": "paid",
###     ...
###   },
###   "timestamp": "2026-03-30T15:26:00.000Z"
### }

### 4.3 Regenerar reporte desde el viaje original
# @name regenerate
POST {{baseUrl}}/trip-reports/{{tripReportId}}/regenerate
Authorization: Bearer {{token}}

### 📤 RESPUESTA ESPERADA:
### {
###   "success": true,
###   "message": "Reporte de viaje regenerado correctamente",
###   "data": {
###     "id": "uuid-report",
###     "tripId": "uuid-trip",
###     ... (datos actualizados desde el viaje)
###   },
###   "timestamp": "2026-03-30T15:27:00.000Z"
### }

### ============================================
### 5. TRIP REPORTS - ELIMINACIÓN
### ============================================

### 5.1 Eliminar reporte
# @name delete
DELETE {{baseUrl}}/trip-reports/{{tripReportId}}
Authorization: Bearer {{token}}

### 📤 RESPUESTA ESPERADA:
### {
###   "success": true,
###   "message": "Reporte de viaje eliminado correctamente",
###   "data": {
###     "id": "uuid-report",
###     "micDta": "MIC-2024-001",
###     ...
###   },
###   "timestamp": "2026-03-30T15:30:00.000Z"
### }

### ============================================
### 6. CASOS DE ERROR
### ============================================

### 6.1 Obtener reporte inexistente
# @name getNonExistent
GET {{baseUrl}}/trip-reports/00000000-0000-0000-0000-000000000000
Authorization: Bearer {{token}}

### 📤 RESPUESTA ESPERADA (Error 404 Not Found):
### {
###   "success": false,
###   "status": "fail",
###   "message": "Reporte de viaje con ID 00000000-0000-0000-0000-000000000000 no encontrado",
###   "code": "NOT_FOUND"
### }

### 6.2 Actualizar reporte inexistente
# @name updateNonExistent
PUT {{baseUrl}}/trip-reports/00000000-0000-0000-0000-000000000000
Authorization: Bearer {{token}}
Content-Type: application/json

{
  "lineNumber": 1
}

### 📤 RESPUESTA ESPERADA (Error 404 Not Found):
### {
###   "success": false,
###   "status": "fail",
###   "message": "Reporte de viaje con ID 00000000-0000-0000-0000-000000000000 no encontrado",
###   "code": "NOT_FOUND"
### }

### 6.3 Obtener por MIC/DTA inexistente
# @name getByMicDtaNonExistent
GET {{baseUrl}}/trip-reports/mic-dta/MIC-INEXISTENTE
Authorization: Bearer {{token}}

### 📤 RESPUESTA ESPERADA (Error 404 Not Found):
### {
###   "success": false,
###   "status": "fail",
###   "message": "Reporte de viaje con MIC/DTA MIC-INEXISTENTE no encontrado",
###   "code": "NOT_FOUND"
### }

### ============================================
### 7. VERIFICACIÓN FINAL
### ============================================

### 7.1 Verificar listado final
# @name finalCheck
GET {{baseUrl}}/trip-reports?page=1&limit=20
Authorization: Bearer {{token}}

### 📤 RESPUESTA ESPERADA: Lista paginada de todos los reportes

### 7.2 Verificar estadísticas finales
# @name finalStats
GET {{baseUrl}}/trip-reports/stats
Authorization: Bearer {{token}}

### 📤 RESPUESTA ESPERADA:
### {
###   "success": true,
###   "message": "Estadisticas de reportes obtenidas correctamente",
###   "data": {
###     "total": 15,
###     "complete": 10,
###     "incomplete": 5,
###     "blockedPayments": 3,
###     "pendingPayments": 8,
###     "partialPayments": 2,
###     "paidPayments": 5,
###     "totalFreight": 18500.00,
###     "totalRetention": 1295.00,
###     "totalNet": 17205.00
###   }
### }

### ============================================
### 📋 RESUMEN DE ENDPOINTS PARA FRONTEND
### ============================================
###
### | Endpoint | Método | Descripción | Permisos Requeridos |
### |----------|--------|-------------|---------------------|
### | /trip-reports | GET | Listar paginado | reportes:viajes:listar |
### | /trip-reports/stats | GET | Estadísticas | reportes:viajes:listar |
### | /trip-reports/blocked-payments | GET | Pagos bloqueados | reportes:viajes:listar |
### | /trip-reports/incomplete-documents | GET | Docs incompletos | reportes:viajes:listar |
### | /trip-reports/bl/:blNumber | GET | Por número de BL | reportes:viajes:listar |
### | /trip-reports/bl/:blNumber/summary | GET | Resumen por BL | reportes:viajes:listar |
### | /trip-reports/client/:clientId | GET | Por cliente | reportes:viajes:listar |
### | /trip-reports/trip/:tripId | GET | Por tripId | reportes:viajes:leer |
### | /trip-reports/mic-dta/:micDta | GET | Por MIC/DTA | reportes:viajes:leer |
### | /trip-reports/:id | GET | Por ID | reportes:viajes:leer |
### | /trip-reports/generate/:tripId | POST | Generar desde viaje | reportes:viajes:crear |
### | /trip-reports/generate-missing | POST | Generar faltantes | reportes:viajes:crear |
### | /trip-reports/:id | PUT | Actualizar | reportes:viajes:actualizar |
### | /trip-reports/:id/regenerate | POST | Regenerar | reportes:viajes:actualizar |
### | /trip-reports/:id | DELETE | Eliminar | reportes:viajes:eliminar |
###
### 📝 NOTAS PARA FRONTEND:
### - El TripReport es un SNAPSHOT de los datos del viaje en un momento dado
### - Se genera automáticamente desde los datos del Trip relacionado
### - Campos financieros: freightAmount, retentionPercent, retentionAmount, netAmount
### - Estado de documentos: documentsComplete, documentsPending, missingDocuments
### - Estado de pago: isPaymentBlocked (bool), paymentStatus (pending/partial/paid)
### - Los campos lineNumber y paymentStatus son los únicos editables manualmente
### - Use regenerate para actualizar el snapshot desde el viaje original
### - El resumen por BL (getBlSummary) agrupa múltiples viajes del mismo BL
### - Los campos missingDocuments son códigos separados por coma (ej: "MIC,CRT,BALANZA")
### ============================================
